{
  "bucketName": "huahuafestaea7b0e8ba9bf49f1a246f7532c3fc667",
  "authPolicyName": "s3_amplify_6f46cfb3",
  "unauthPolicyName": "s3_amplify_6f46cfb3",
  "authRoleName": {
    "Ref": "AuthRoleName"
  },
  "unauthRoleName": {
    "Ref": "UnauthRoleName"
  },
  "selectedGuestPermissions": [
    "s3:GetObject",
    "s3:ListBucket"
  ],
  "selectedAuthenticatedPermissions": [
    "s3:PutObject",
    "s3:GetObject",
    "s3:ListBucket"
  ],
  "s3PermissionsAuthenticatedPublic": "s3:PutObject,s3:GetObject",
  "s3PublicPolicy": "Public_policy_90feef7c",
  "s3PermissionsAuthenticatedUploads": "s3:PutObject",
  "s3UploadsPolicy": "Uploads_policy_90feef7c",
  "s3PermissionsAuthenticatedProtected": "s3:PutObject,s3:GetObject",
  "s3ProtectedPolicy": "Protected_policy_b9bf1b5c",
  "s3PermissionsAuthenticatedPrivate": "s3:PutObject,s3:GetObject",
  "s3PrivatePolicy": "Private_policy_b9bf1b5c",
  "AuthenticatedAllowList": "ALLOW",
  "s3ReadPolicy": "read_policy_90feef7c",
  "s3PermissionsGuestPublic": "s3:GetObject",
  "s3PermissionsGuestUploads": "DISALLOW",
  "GuestAllowList": "ALLOW",
  "triggerFunction": "NONE"
}